…
There would be 341,883 records in a combined register of the 119 sheets.


```r
all_sheets %>%
  # Drop the non-data sheets
  keep(!(names(all_sheets) %in% c("RGC", "Metadata_for_geography_listings"))) %>%
  bind_rows()
```

```
## # A tibble: 341,883 × 15
##       GEOGCD GEOGNM GEOGNMW     SI_ID               SI_TITLE  OPER_DATE
##        <chr>  <chr>   <chr>     <chr>                  <chr>     <dttm>
## 1  E00000001   <NA>    <NA> 1111/1001 GSS re-coding strategy 2009-01-01
## 2  E00000002   <NA>    <NA> 1111/1001 GSS re-coding strategy 2009-01-01
## 3  E00000003   <NA>    <NA> 1111/1001 GSS re-coding strategy 2009-01-01
## 4  E00000004   <NA>    <NA> 1111/1001 GSS re-coding strategy 2009-01-01
## 5  E00000005   <NA>    <NA> 1111/1001 GSS re-coding strategy 2009-01-01
## 6  E00000006   <NA>    <NA> 1111/1001 GSS re-coding strategy 2009-01-01
## 7  E00000007   <NA>    <NA> 1111/1001 GSS re-coding strategy 2009-01-01
## 8  E00000008   <NA>    <NA> 1111/1001 GSS re-coding strategy 2009-01-01
## 9  E00000009   <NA>    <NA> 1111/1001 GSS re-coding strategy 2009-01-01
## 10 E00000010   <NA>    <NA> 1111/1001 GSS re-coding strategy 2009-01-01
## # ... with 341,873 more rows, and 9 more variables: TERM_DATE <dttm>,
## #   PARENTCD <chr>, ENTITYCD <chr>, OWNER <chr>, STATUS <chr>,
## #   AREAEHECT <dbl>, AREACHECT <dbl>, AREAIHECT <dbl>, AREALHECT <dbl>
```
